^C:\USERS\EQUIPO #14 - ALUMNOS\DOCUMENTS\PROGRA-3-SDL\SDL2\SDL2\X64\DEBUG\CONTROLLER.OBJ|C:\USERS\EQUIPO #14 - ALUMNOS\DOCUMENTS\PROGRA-3-SDL\SDL2\SDL2\X64\DEBUG\MAIN.OBJ|C:\USERS\EQUIPO #14 - ALUMNOS\DOCUMENTS\PROGRA-3-SDL\SDL2\SDL2\X64\DEBUG\VIEW.OBJ
/OUT:"C:\USERS\EQUIPO #14 - ALUMNOS\DOCUMENTS\PROGRA-3-SDL\SDL2\X64\DEBUG\SDL2.EXE" /INCREMENTAL /NOLOGO /LIBPATH:C:\DEV\SDL2_TTF\LIB\X64 /LIBPATH:C:\DEV\SDL2_MIXER\LIB\X64 /LIBPATH:C:\DEV\SDL2_IMAGE\LIB\X64 /LIBPATH:C:\USERS\LENOVO\DESKTOP\SDL\LIB\X64 /LIBPATH:C:\DEV\SDL2\LIB\X64 SDL2.LIB SDL2MAIN.LIB SDL2_IMAGE.LIB SDL2_TTF.LIB SDL2_MIXER.LIB KERNEL32.LIB USER32.LIB GDI32.LIB WINSPOOL.LIB COMDLG32.LIB ADVAPI32.LIB SHELL32.LIB OLE32.LIB OLEAUT32.LIB UUID.LIB ODBC32.LIB ODBCCP32.LIB /MANIFEST /MANIFESTUAC:"level='asInvoker' uiAccess='false'" /manifest:embed /DEBUG:FASTLINK /PDB:"C:\USERS\EQUIPO #14 - ALUMNOS\DOCUMENTS\PROGRA-3-SDL\SDL2\X64\DEBUG\SDL2.PDB" /SUBSYSTEM:CONSOLE /TLBID:1 /DYNAMICBASE /NXCOMPAT /IMPLIB:"C:\USERS\EQUIPO #14 - ALUMNOS\DOCUMENTS\PROGRA-3-SDL\SDL2\X64\DEBUG\SDL2.LIB" /MACHINE:X64 X64\DEBUG\CONTROLLER.OBJX64\DEBUG\MAIN.OBJX64\DEBUG\VIEW.OBJ
^C:\USERS\LENOVO\DOCUMENTS\PROGRA-3-SDL\SDL2\SDL2\X64\DEBUG\CONTROLLER.OBJ|C:\USERS\LENOVO\DOCUMENTS\PROGRA-3-SDL\SDL2\SDL2\X64\DEBUG\MAIN.OBJ|C:\USERS\LENOVO\DOCUMENTS\PROGRA-3-SDL\SDL2\SDL2\X64\DEBUG\VIEW.OBJ
/OUT:"C:\USERS\LENOVO\DOCUMENTS\PROGRA-3-SDL\SDL2\X64\DEBUG\SDL2.EXE" /INCREMENTAL /NOLOGO /LIBPATH:C:\DEV\SDL2_TTF\LIB\X64 /LIBPATH:C:\DEV\SDL2_MIXER\LIB\X64 /LIBPATH:C:\DEV\SDL2_IMAGE\LIB\X64 /LIBPATH:C:\USERS\LENOVO\DESKTOP\SDL\LIB\X64 /LIBPATH:C:\DEV\SDL2\LIB\X64 SDL2.LIB SDL2MAIN.LIB SDL2_IMAGE.LIB SDL2_TTF.LIB SDL2_MIXER.LIB KERNEL32.LIB USER32.LIB GDI32.LIB WINSPOOL.LIB COMDLG32.LIB ADVAPI32.LIB SHELL32.LIB OLE32.LIB OLEAUT32.LIB UUID.LIB ODBC32.LIB ODBCCP32.LIB /MANIFEST /MANIFESTUAC:"level='asInvoker' uiAccess='false'" /manifest:embed /DEBUG:FASTLINK /PDB:"C:\USERS\LENOVO\DOCUMENTS\PROGRA-3-SDL\SDL2\X64\DEBUG\SDL2.PDB" /SUBSYSTEM:CONSOLE /TLBID:1 /DYNAMICBASE /NXCOMPAT /IMPLIB:"C:\USERS\LENOVO\DOCUMENTS\PROGRA-3-SDL\SDL2\X64\DEBUG\SDL2.LIB" /MACHINE:X64 X64\DEBUG\CONTROLLER.OBJX64\DEBUG\MAIN.OBJX64\DEBUG\VIEW.OBJ
