^C:\USERS\EQUIPO #14 - ALUMNOS\SOURCE\REPOS\SDL2\SDL2\MAIN.CPP
/c /IC:\DEV\SDL2\INCLUDE /ZI /JMC /nologo /W3 /WX- /diagnostics:column /sdl /Od /Oy- /D _MBCS /Gm- /EHsc /RTC1 /MDd /GS /fp:precise /permissive- /Zc:wchar_t /Zc:forScope /Zc:inline /Fo"DEBUG\\" /Fd"DEBUG\VC142.PDB" /Gd /TP /analyze- /FC C:\USERS\EQUIPO #14 - ALUMNOS\SOURCE\REPOS\SDL2\SDL2\MAIN.CPP
^C:\USERS\EQUIPO #14 - ALUMNOS\DOCUMENTS\PROGRA-3-SDL\SDL2\SDL2\IMAGENSDL.CPP
/c /IC:\DEV\SDL2\INCLUDE /ZI /JMC /nologo /W3 /WX- /diagnostics:column /sdl /Od /Oy- /D _MBCS /Gm- /EHsc /RTC1 /MDd /GS /fp:precise /permissive- /Zc:wchar_t /Zc:forScope /Zc:inline /Fo"DEBUG\\" /Fd"DEBUG\VC142.PDB" /Gd /TP /analyze- /FC C:\USERS\EQUIPO #14 - ALUMNOS\DOCUMENTS\PROGRA-3-SDL\SDL2\SDL2\IMAGENSDL.CPP
^C:\USERS\EQUIPO #14 - ALUMNOS\DOCUMENTS\PROGRA-3-SDL\SDL2\SDL2\GAME.CPP
/c /IC:\DEV\SDL2\INCLUDE /ZI /JMC /nologo /W3 /WX- /diagnostics:column /sdl /Od /Oy- /D _MBCS /Gm- /EHsc /RTC1 /MDd /GS /fp:precise /permissive- /Zc:wchar_t /Zc:forScope /Zc:inline /Fo"DEBUG\\" /Fd"DEBUG\VC142.PDB" /Gd /TP /analyze- /FC C:\USERS\EQUIPO #14 - ALUMNOS\DOCUMENTS\PROGRA-3-SDL\SDL2\SDL2\GAME.CPP
^C:\USERS\EQUIPO #14 - ALUMNOS\DOCUMENTS\PROGRA-3-SDL\SDL2\SDL2\CONTROLLER.CPP
/c /IC:\DEV\SDL2\INCLUDE /ZI /JMC /nologo /W3 /WX- /diagnostics:column /sdl /Od /Oy- /D _MBCS /Gm- /EHsc /RTC1 /MDd /GS /fp:precise /permissive- /Zc:wchar_t /Zc:forScope /Zc:inline /Fo"DEBUG\\" /Fd"DEBUG\VC142.PDB" /Gd /TP /analyze- /FC C:\USERS\EQUIPO #14 - ALUMNOS\DOCUMENTS\PROGRA-3-SDL\SDL2\SDL2\CONTROLLER.CPP
^C:\USERS\EQUIPO #14 - ALUMNOS\DOCUMENTS\PROGRA-3-SDL\SDL2\SDL2\VIEW.CPP
/c /IC:\DEV\SDL2\INCLUDE /ZI /JMC /nologo /W3 /WX- /diagnostics:column /sdl /Od /Oy- /D _MBCS /Gm- /EHsc /RTC1 /MDd /GS /fp:precise /permissive- /Zc:wchar_t /Zc:forScope /Zc:inline /Fo"DEBUG\\" /Fd"DEBUG\VC142.PDB" /Gd /TP /analyze- /FC C:\USERS\EQUIPO #14 - ALUMNOS\DOCUMENTS\PROGRA-3-SDL\SDL2\SDL2\VIEW.CPP
^C:\USERS\EQUIPO #14 - ALUMNOS\DOCUMENTS\PROGRA-3-SDL\SDL2\SDL2\MAIN.CPP
/c /IC:\DEV\SDL2\INCLUDE /ZI /JMC /nologo /W3 /WX- /diagnostics:column /sdl /Od /Oy- /D _MBCS /Gm- /EHsc /RTC1 /MDd /GS /fp:precise /permissive- /Zc:wchar_t /Zc:forScope /Zc:inline /Fo"DEBUG\\" /Fd"DEBUG\VC142.PDB" /Gd /TP /analyze- /FC C:\USERS\EQUIPO #14 - ALUMNOS\DOCUMENTS\PROGRA-3-SDL\SDL2\SDL2\MAIN.CPP
